"Timestamp","Name","Test Type","Was audio output available?","How much were you able to control events?","How responsive was the environment to actions that you initiated (or performed)?","How natural did your interactions with the environment seem?","How much did the visual aspects of the environment involve you?","How natural was the mechanism which controlled movement through the environment?","How compelling was your sense of objects moving through space?","How much did your experiences in the virtual environment seem consistent with your real world experiences?","Were you able to anticipate what would happen next in response to the actions that you performed?","How completely were you able to actively survey or search the environment using vision?","How compelling was your sense of moving around inside the virtual environment?","How closely were you able to examine objects?","How well could you examine objects from multiple viewpoints?","How involved were you in the virtual environment experience?","How much delay did you experience between your actions and expected outcomes?","How quickly did you adjust to the virtual environment experience?","How proficient in moving and interacting with the virtual environment did you feel at the end of the experience?","How much did the visual display quality interfere or distract you from performing assigned tasks or required activities?","How much did the control devices interfere with the performance of assigned tasks or with other activities?","How well could you concentrate on the assigned tasks or required activities rather than on the mechanisms used to perform those tasks or activities?","How much did the auditory aspects of the environment involve you?","How well could you identify sounds?","How well could you localize sounds?","How well could you actively survey or search the virtual environment using touch?","How well could you move or manipulate objects in the virtual environment?","Do you have additional comments?"
"2017/03/13 5:39:22 PM GMT+2","Andreas Walch","Basketball","Yes","5","5","6","6","5","6","6","6","6","6","6","6","6","1","0","5","1","0","6","6","6","6","6","5",""
"2017/03/13 5:49:46 PM GMT+2","Andreas Walch","Grabbing Test - Haptic and Optical Feedback","Yes","4","5","5","6","5","6","5","6","6","6","6","6","6","0","6","6","0","0","5","4","6","4","6","6",""
"2017/03/13 6:00:26 PM GMT+2","Andreas Walch","Grabbing Test - No Feedback","Yes","3","2","2","4","2","6","6","3","6","6","6","6","5","1","6","3","1","0","5","2","5","5","6","2",""
"2017/03/13 6:09:55 PM GMT+2","Andreas Walch","Grabbing Test - Haptic Feedback","Yes","5","6","6","6","5","6","5","4","6","6","6","6","6","0","6","5","0","0","5","5","6","6","6","4",""
"2017/03/13 6:18:39 PM GMT+2","Andreas Walch","Grabbing Test - Optical Feedback","Yes","6","6","6","6","6","6","6","6","6","6","6","6","6","0","6","6","0","0","6","5","6","6","6","6",""
"2017/03/14 2:03:50 PM GMT+2","Andreas Walch","Point-cloud Editing","No","6","6","6","3","6","6","3","6","6","6","6","6","6","0","6","6","0","0","6","0","0","0","6","6",""
"2017/03/14 3:52:59 PM GMT+2","Lisa Fellinger","Basketball","Yes","4","4","5","5","4","4","6","5","6","5","6","6","5","1","6","5","1","0","5","3","6","6","5","5",""
"2017/03/14 4:10:17 PM GMT+2","Lisa Fellinger","Grabbing Test - No Feedback","Yes","3","4","2","4","4","1","2","2","5","4","5","5","4","1","3","1","0","4","1","4","5","3","0","2",""
"2017/03/14 4:19:07 PM GMT+2","Lisa Fellinger","Grabbing Test - Haptic Feedback","Yes","4","4","4","6","5","5","5","5","6","5","6","6","5","1","4","4","0","1","4","6","6","4","4","4",""
"2017/03/14 4:27:54 PM GMT+2","Lisa Fellinger","Grabbing Test - Haptic and Optical Feedback","Yes","5","5","5","5","5","5","5","5","5","5","5","6","5","1","6","5","0","1","5","5","4","5","5","5","Weird ball noises"
"2017/03/14 4:35:58 PM GMT+2","Lisa Fellinger","Grabbing Test - Optical Feedback","Yes","5","5","5","5","4","5","5","5","5","5","6","6","5","1","6","5","1","1","5","6","5","5","0","5",""
"2017/03/14 5:11:11 PM GMT+2","Lisa Fellinger","Point-cloud Editing","No","6","5","6","6","5","5","1","6","6","5","6","6","5","2","6","6","1","1","6","0","0","0","5","6",""
"2017/03/20 5:01:58 PM GMT+2","Alex Römich","Basketball","Yes","1","5","3","2","4","6","3","6","6","6","5","5","6","0","6","6","0","1","4","4","5","3","5","6",""
"2017/03/20 5:18:55 PM GMT+2","Alex Römich","Grabbing Test - Haptic Feedback","Yes","2","5","2","2","2","5","2","2","2","6","3","5","5","0","6","3","0","6","6","4","5","5","4","2",""
"2017/03/20 5:27:44 PM GMT+2","Alex Römich","Grabbing Test - No Feedback","Yes","5","4","2","3","2","5","3","3","5","6","5","5","6","0","6","5","0","3","6","4","5","3","0","3",""
"2017/03/20 5:36:44 PM GMT+2","Alex Römich","Grabbing Test - Haptic and Optical Feedback","Yes","5","5","3","5","3","5","3","3","5","6","6","5","5","0","6","5","0","3","6","4","5","3","5","4",""
"2017/03/20 5:44:16 PM GMT+2","Alex Römich","Grabbing Test - Optical Feedback","Yes","5","5","3","5","2","6","3","4","5","6","6","5","5","0","6","5","0","0","2","4","5","3","0","4",""
"2017/03/20 6:17:26 PM GMT+2","Alex Römich","Point-cloud Editing","No","6","6","6","5","6","6","6","3","6","6","6","6","6","1","6","6","1","1","6","0","0","0","6","6",""
"2017/03/21 1:50:59 PM GMT+2","Rebeka Koszticsák","Basketball","Yes","6","6","4","5","6","3","5","6","6","6","4","4","6","0","6","6","0","0","6","3","6","6","4","6",""
"2017/03/21 2:05:05 PM GMT+2","Rebeka Koszticsák","Grabbing Test - Optical Feedback","Yes","6","6","5","5","6","5","6","6","6","6","6","6","6","0","6","5","0","2","6","4","6","6","0","5",""
"2017/03/21 2:14:59 PM GMT+2","Rebeka Koszticsák","Grabbing Test - No Feedback","Yes","3","4","3","6","5","4","4","4","6","6","6","6","6","2","6","3","0","3","4","6","6","6","0","4",""
"2017/03/21 2:23:14 PM GMT+2","Rebeka Koszticsák","Grabbing Test - Haptic and Optical Feedback","Yes","6","6","5","6","5","6","5","5","6","6","6","6","6","0","6","5","0","1","5","5","6","6","5","5",""
"2017/03/21 2:31:57 PM GMT+2","Rebeka Koszticsák","Grabbing Test - Haptic Feedback","Yes","5","6","5","6","6","5","5","5","6","6","6","6","6","0","6","6","0","1","6","5","6","6","5","5",""
"2017/03/21 3:20:15 PM GMT+2","Rebeka Koszticsák","Point-cloud Editing","No","6","6","6","6","6","6","6","6","6","6","6","6","6","0","6","6","4","2","6","0","0","0","3","6",""
"2017/03/21 6:16:33 PM GMT+2","Michal Domanski","Basketball","Yes","4","5","4","4","6","4","4","5","6","6","6","6","6","1","6","4","1","2","6","4","6","5","4","4",""
"2017/03/21 6:50:29 PM GMT+2","Michal Domanski","Point-cloud Editing","No","6","5","5","6","5","6","5","5","6","6","6","6","6","0","4","6","1","2","4","0","0","0","5","6","I was missing the option to control the yaw axis"
"2017/03/23 6:20:19 PM GMT+2","Stefan Ebner","Basketball","Yes","3","6","2","2","4","3","3","3","6","5","4","4","3","1","4","5","1","0","3","4","5","5","3","5","My elbow still hurts"
"2017/03/23 6:38:30 PM GMT+2","Stefan Ebner","Grabbing Test - No Feedback","Yes","2","2","2","3","5","4","3","3","6","5","4","5","5","1","6","3","1","3","3","4","5","5","4","2","This didn't hurt my elbow :)"
"2017/03/23 6:52:40 PM GMT+2","Stefan Ebner","Grabbing Test - Optical Feedback","Yes","4","3","3","4","4","5","5","4","4","5","5","5","4","1","6","4","3","1","4","4","5","5","4","3","My elbow fucks Andi"
"2017/03/23 7:00:44 PM GMT+2","Stefan Ebner","Grabbing Test - Haptic Feedback","Yes","5","5","5","4","4","5","5","5","5","5","5","5","4","1","6","5","3","3","5","4","5","5","5","4","Help I am an elbow in distress!"
"2017/03/23 7:11:06 PM GMT+2","Stefan Ebner","Grabbing Test - Haptic and Optical Feedback","Yes","5","5","5","3","5","5","4","5","5","5","5","5","4","1","6","5","2","2","4","3","5","5","5","5","My elbow is disappointed in my performance!"
"2017/03/23 7:53:08 PM GMT+2","Stefan Ebner","Point-cloud Editing","No","5","5","4","4","4","4","4","5","5","5","5","5","5","2","6","5","4","3","4","4","0","0","5","5","My elbow found all dem points!"
"2017/03/24 4:05:34 PM GMT+2","Martin Kunert","Basketball","Yes","6","5","5","5","5","4","3","4","5","3","5","5","6","0","6","4","1","1","5","4","5","5","5","5",""
"2017/03/24 4:17:14 PM GMT+2","Martin Kunert","Grabbing Test - Optical Feedback","Yes","4","4","4","4","5","5","4","3","4","3","5","4","5","1","4","5","2","2","4","4","4","3","4","4",""
"2017/03/24 4:26:35 PM GMT+2","Martin Kunert","Grabbing Test - Haptic Feedback","Yes","4","4","4","4","4","2","4","4","4","3","5","4","5","1","5","4","2","2","4","4","3","2","4","4",""
"2017/03/24 4:35:38 PM GMT+2","Martin Kunert","Grabbing Test - No Feedback","Yes","4","4","4","4","4","3","4","3","4","3","5","5","5","1","5","5","4","2","4","4","3","3","5","4",""
"2017/03/24 4:43:00 PM GMT+2","Martin Kunert","Grabbing Test - Haptic and Optical Feedback","Yes","5","5","5","5","5","5","5","4","4","2","4","4","5","1","5","4","2","2","4","4","3","3","5","4",""
"2017/03/24 5:07:01 PM GMT+2","Martin Kunert","Point-cloud Editing","No","5","4","4","4","4","2","4","4","4","4","4","4","4","1","5","4","4","4","4","0","0","0","4","4",""
"2017/03/27 3:42:49 PM GMT+2","David Drobny","Basketball","Yes","6","6","5","5","6","6","4","4","6","6","5","6","5","0","5","6","0","0","6","5","6","5","2","5",""
"2017/03/27 3:57:08 PM GMT+2","David Drobny","Grabbing Test - Optical Feedback","Yes","4","4","6","6","6","5","4","4","5","6","6","6","6","0","3","5","0","0","6","6","6","6","0","6",""
"2017/03/27 4:09:12 PM GMT+2","David Drobny","Grabbing Test - Haptic Feedback","Yes","3","3","4","4","6","6","4","4","5","6","6","6","6","0","6","5","0","0","1","6","6","6","6","3",""
"2017/03/27 4:18:27 PM GMT+2","David Drobny","Grabbing Test - No Feedback","Yes","4","6","6","6","6","6","4","5","6","6","6","6","6","0","6","5","0","0","6","6","6","6","0","4",""
"2017/03/27 4:30:19 PM GMT+2","David Drobny","Grabbing Test - Haptic and Optical Feedback","Yes","2","6","5","6","6","6","4","4","6","6","6","6","6","0","6","5","0","0","6","6","6","6","0","2",""
"2017/03/27 5:11:36 PM GMT+2","David Drobny","Point-cloud Editing","No","6","6","6","6","6","6","6","6","6","6","6","6","6","0","6","6","0","0","6","0","0","0","6","6",""
"2017/03/28 12:50:22 PM GMT+2","Nikolaus Irnstorfer","Basketball","Yes","2","4","4","3","6","4","5","4","6","5","5","6","6","1","5","5","1","1","4","3","5","5","6","6",""
"2017/03/28 1:01:30 PM GMT+2","Nikolaus Irnstorfer","Grabbing Test - Haptic and Optical Feedback","Yes","6","5","4","5","4","5","4","4","6","6","6","6","6","1","5","5","1","2","5","5","6","6","5","6",""
"2017/03/28 1:09:13 PM GMT+2","Nikolaus Irnstorfer","Grabbing Test - Haptic Feedback","Yes","6","4","4","5","5","6","4","4","6","6","6","6","6","1","6","5","1","1","5","6","6","6","5","6",""
"2017/03/28 1:16:32 PM GMT+2","Nikolaus Irnstorfer","Grabbing Test - No Feedback","Yes","6","6","6","5","4","4","4","3","6","6","6","6","5","1","6","5","1","1","2","5","6","6","5","3",""
"2017/03/28 1:25:22 PM GMT+2","Nikolaus Irnstorfer","Grabbing Test - Optical Feedback","Yes","6","6","5","5","5","5","5","4","6","6","6","6","6","1","6","6","1","1","5","5","6","6","5","5",""
"2017/03/28 1:50:34 PM GMT+2","Nikolaus Irnstorfer","Point-cloud Editing","No","6","6","6","6","6","6","6","6","6","6","6","6","6","6","6","6","0","1","5","0","0","0","5","6",""
"2017/03/28 5:08:29 PM GMT+2","Michal Domanski","Grabbing Test - Haptic and Optical Feedback","Yes","4","4","4","4","6","2","2","2","6","6","6","6","6","1","6","5","1","2","4","5","6","4","4","2",""
"2017/03/28 5:18:32 PM GMT+2","Michal Domanski","Grabbing Test - No Feedback","Yes","2","5","2","4","6","2","2","1","6","6","6","6","5","1","6","3","1","3","5","4","6","4","0","2",""
"2017/03/28 5:27:01 PM GMT+2","Michal Domanski","Grabbing Test - Optical Feedback","Yes","3","4","2","4","6","6","3","2","6","6","6","6","5","1","5","3","1","4","5","5","6","5","0","2",""
"2017/03/28 5:36:31 PM GMT+2","Michal Domanski","Grabbing Test - Haptic Feedback","Yes","2","4","2","4","6","2","2","1","6","6","6","6","4","1","5","3","1","4","4","5","6","3","4","2",""
"2017/03/29 4:03:55 PM GMT+2","Dominik Schörkhuber","Basketball","Yes","4","5","5","2","6","6","4","5","6","6","6","6","6","0","5","5","0","1","3","5","6","4","1","6",""
"2017/03/29 4:17:29 PM GMT+2","Dominik Schörkhuber","Grabbing Test - No Feedback","Yes","6","6","4","6","5","5","2","4","6","6","6","6","5","1","6","4","0","2","5","4","6","5","0","5",""
"2017/03/29 4:28:24 PM GMT+2","Dominik Schörkhuber","Grabbing Test - Optical Feedback","Yes","6","5","4","3","6","5","4","5","6","6","6","6","5","0","6","6","0","1","5","1","6","5","0","5",""
"2017/03/29 4:39:51 PM GMT+2","Dominik Schörkhuber","Grabbing Test - Haptic and Optical Feedback","Yes","5","5","4","5","6","5","4","5","6","6","6","6","5","1","6","5","0","1","5","0","6","5","2","5",""
"2017/03/29 4:50:16 PM GMT+2","Dominik Schörkhuber","Grabbing Test - Haptic Feedback","Yes","6","5","5","5","6","6","5","6","6","6","6","6","5","0","6","6","0","1","5","1","6","4","5","6",""
"2017/03/29 5:29:02 PM GMT+2","Dominik Schörkhuber","Point-cloud Editing","No","6","6","6","6","6","6","0","6","6","6","6","5","6","0","4","6","2","2","5","0","0","0","0","6","15 minutes is max to work comfortably; buttons are very hard to hit"
"2017/03/30 11:21:26 AM GMT+2","Theresa Lindner","Basketball","Yes","4","4","5","5","6","4","4","3","6","6","5","6","6","0","6","5","1","1","6","6","6","2","6","4","The basketball seemed kind of too light"
"2017/03/30 11:38:08 AM GMT+2","Theresa Lindner","Grabbing Test - Haptic Feedback","Yes","6","5","4","4","5","4","4","5","5","6","5","6","4","0","6","5","0","0","5","6","6","5","5","5","Sometimes it feels like you're going through the ball while you try to get it."
"2017/03/30 11:48:33 AM GMT+2","Theresa Lindner","Grabbing Test - Optical Feedback","Yes","6","6","5","5","6","5","5","6","5","6","5","6","4","0","6","6","0","0","5","5","6","6","6","6",""
"2017/03/30 11:59:40 AM GMT+2","Theresa Lindner","Grabbing Test - Haptic and Optical Feedback","Yes","6","6","6","6","6","6","5","6","6","6","5","6","5","0","6","5","0","0","6","6","5","5","6","4",""
"2017/03/30 12:12:38 PM GMT+2","Theresa Lindner","Grabbing Test - No Feedback","Yes","6","6","6","5","6","5","6","3","5","6","5","6","6","0","6","5","0","0","6","5","5","5","0","4",""
"2017/03/30 1:09:53 PM GMT+2","Theresa Lindner","Point-cloud Editing","No","6","5","4","6","5","4","1","6","5","6","5","6","6","0","4","6","0","1","4","0","0","0","6","6",""
"2017/03/30 3:24:58 PM GMT+2","Harald Steinlechner","Basketball","Yes","2","5","2","5","6","5","2","4","6","6","5","4","5","3","2","2","0","1","2","2","1","1","4","4",""
"2017/03/30 3:57:57 PM GMT+2","Harald Steinlechner","Point-cloud Editing","No","5","6","5","1","6","6","0","6","6","6","6","6","6","1","6","6","0","0","5","0","0","0","6","6","other controls such as boxes would be nice"
"2017/03/31 2:02:21 PM GMT+2","Michael Gerstorfer","Basketball","Yes","6","5","5","6","5","6","6","4","5","6","6","6","6","1","6","6","0","4","6","6","5","6","6","5","slight delay in shooting the ball in high arks"
"2017/03/31 2:15:31 PM GMT+2","Michael Gerstorfer","Grabbing Test - Haptic and Optical Feedback","Yes","4","4","3","6","6","6","6","5","6","6","6","6","6","0","6","4","1","1","3","6","4","6","6","3",""
"2017/03/31 2:27:48 PM GMT+2","Michael Gerstorfer","Grabbing Test - Haptic Feedback","Yes","4","5","4","6","6","4","5","4","6","6","6","6","6","0","6","6","0","0","4","4","6","5","6","4",""
"2017/03/31 2:37:53 PM GMT+2","Michael Gerstorfer","Grabbing Test - Optical Feedback","Yes","4","4","5","6","6","4","5","5","6","6","6","6","6","5","6","4","0","2","4","5","6","6","6","4",""
"2017/03/31 2:46:31 PM GMT+2","Michael Gerstorfer","Grabbing Test - No Feedback","Yes","3","3","5","6","6","6","6","4","6","6","6","6","6","0","6","5","1","1","4","6","6","6","6","3",""
"2017/03/31 3:25:02 PM GMT+2","Michael Gerstorfer","Point-cloud Editing","No","6","6","6","6","6","6","6","6","6","6","6","6","6","0","6","6","0","0","6","0","0","0","6","6",""
"2017/04/06 10:50:56 AM GMT+2","Agnes Knor","Basketball","Yes","5","5","3","5","6","4","3","5","4","5","6","6","5","0","6","5","0","0","1","6","6","6","5","5",""
"2017/04/06 11:07:41 AM GMT+2","Agnes Knor","Grabbing Test - No Feedback","Yes","2","5","3","5","4","5","1","4","4","5","6","6","5","0","2","4","2","3","4","5","5","5","5","3",""
"2017/04/06 11:19:02 AM GMT+2","Agnes Knor","Grabbing Test - Haptic and Optical Feedback","Yes","5","5","2","2","3","5","2","5","5","5","6","6","5","0","4","4","1","2","5","3","5","5","6","5",""
"2017/04/06 11:30:00 AM GMT+2","Agnes Knor","Grabbing Test - Haptic Feedback","Yes","5","5","4","3","5","5","3","5","4","5","5","6","5","0","5","5","1","4","5","2","5","5","4","4",""
"2017/04/06 11:37:27 AM GMT+2","Agnes Knor","Grabbing Test - Optical Feedback","Yes","5","5","5","5","5","5","3","5","5","5","5","6","5","0","6","5","1","1","5","2","5","5","5","5",""
"2017/04/06 12:09:26 PM GMT+2","Agnes Knor","Point-cloud Editing","No","5","5","5","4","5","5","1","5","5","5","5","5","5","1","4","3","2","1","5","2","0","0","4","4",""
"2017/04/06 7:26:17 PM GMT+2","Patrick Stürmer","Basketball","Yes","5","5","3","6","6","4","4","5","6","6","5","6","6","1","6","6","1","2","4","6","6","6","5","6","Der Ball hat sich ein bisschen unaufgeblasen angefühlt :)"
"2017/04/06 7:40:52 PM GMT+2","Patrick Stürmer","Grabbing Test - Haptic Feedback","Yes","5","5","5","6","4","6","5","5","6","6","5","5","6","1","6","6","0","1","5","0","6","6","6","5",""
"2017/04/06 7:55:02 PM GMT+2","Patrick Stürmer","Grabbing Test - Haptic and Optical Feedback","Yes","6","6","5","6","5","6","4","5","6","5","6","5","6","1","6","6","0","0","6","1","6","6","6","6",""
"2017/04/06 8:09:03 PM GMT+2","Patrick Stürmer","Grabbing Test - No Feedback","Yes","5","4","4","5","5","4","4","5","6","6","5","6","5","1","6","6","1","0","5","0","6","6","0","5",""
"2017/04/06 8:18:06 PM GMT+2","Patrick Stürmer","Grabbing Test - Optical Feedback","Yes","5","5","5","4","5","5","4","5","6","5","5","6","6","1","6","6","0","1","4","0","6","6","0","4","Optical Feedback is barely useful in ""hard mode"""
"2017/04/06 9:20:48 PM GMT+2","Patrick Stürmer","Point-cloud Editing","No","6","6","6","6","6","6","6","6","6","6","6","6","6","1","6","6","0","0","6","0","0","0","2","6","haptic feedback is annoying "
"2017/04/07 11:20:22 AM GMT+2","Petra Rottenmanner","Basketball","Yes","3","5","5","4","4","4","5","2","4","4","5","5","5","4","3","3","3","3","5","0","0","1","3","5",""
"2017/04/07 11:32:40 AM GMT+2","Niko Fellinger","Basketball","Yes","4","5","5","3","5","5","5","5","5","5","5","5","5","3","6","4","0","1","4","3","3","1","4","5",""
"2017/04/07 11:38:16 AM GMT+2","Petra Rottenmanner","Grabbing Test - Optical Feedback","Yes","2","4","5","0","2","6","3","4","5","4","5","3","6","3","3","2","0","0","5","0","4","1","3","2",""
"2017/04/07 11:45:06 AM GMT+2","Niko Fellinger","Grabbing Test - Haptic and Optical Feedback","Yes","5","6","5","5","6","4","4","5","4","5","5","4","6","1","6","5","1","1","5","2","4","1","1","4",""
"2017/04/07 11:52:28 AM GMT+2","Petra Rottenmanner","Grabbing Test - Haptic and Optical Feedback","Yes","3","3","4","4","3","3","4","2","4","4","5","5","4","2","4","1","2","3","2","0","2","2","2","3",""
"2017/04/07 11:58:00 AM GMT+2","Niko Fellinger","Grabbing Test - Optical Feedback","Yes","5","5","5","5","5","4","5","5","5","5","4","4","5","1","6","4","0","1","5","3","2","1","3","5",""
"2017/04/07 12:00:40 PM GMT+2","Petra Rottenmanner","Grabbing Test - No Feedback","No","6","5","6","5","4","4","4","3","4","4","5","5","5","1","4","4","0","3","3","0","0","0","4","4",""
"2017/04/07 12:10:03 PM GMT+2","Niko Fellinger","Grabbing Test - No Feedback","Yes","5","5","4","4","5","5","4","4","5","5","5","5","5","1","6","5","0","1","4","2","2","1","3","4",""
"2017/04/07 12:12:05 PM GMT+2","Petra Rottenmanner","Grabbing Test - Haptic Feedback","Yes","4","4","5","5","3","4","4","3","4","4","4","4","5","1","4","2","0","4","4","0","0","0","4","4","Ton empfinde ich als störend"
"2017/04/07 12:24:22 PM GMT+2","Niko Fellinger","Grabbing Test - Haptic Feedback","Yes","4","4","5","4","4","4","4","5","5","5","5","5","5","1","6","5","0","1","4","1","1","1","3","4",""
"2017/04/07 12:43:49 PM GMT+2","Petra Rottenmanner","Point-cloud Editing","No","6","4","1","1","3","3","0","4","4","5","5","5","3","2","4","1","0","1","2","0","0","0","4","5",""
"2017/04/07 1:14:11 PM GMT+2","Niko Fellinger","Point-cloud Editing","No","6","6","4","3","2","4","4","5","5","5","5","6","4","2","6","5","1","1","4","0","0","0","3","5",""
"2017/04/20 1:33:54 PM GMT+2","peter muchitsch","Basketball","Yes","5","3","3","6","6","6","4","6","6","6","5","5","6","0","6","5","0","3","4","6","6","6","6","3",""
"2017/04/20 1:37:08 PM GMT+2","Brigitte Ratzer","Basketball","Yes","3","5","4","5","6","5","5","5","4","6","6","4","6","1","4","5","0","0","6","1","6","5","2","5",""
"2017/04/20 1:49:42 PM GMT+2","peter muchitsch","Grabbing Test - No Feedback","Yes","2","4","3","6","6","6","4","2","6","6","6","6","6","0","6","2","0","2","4","6","6","6","0","2",""
"2017/04/20 1:50:53 PM GMT+2","Brigitte Ratzer","Grabbing Test - Haptic Feedback","Yes","6","5","6","6","6","6","5","6","6","6","6","6","5","0","6","5","0","0","6","4","6","6","6","6",""
"2017/04/20 2:00:24 PM GMT+2","Brigitte Ratzer","Grabbing Test - Haptic and Optical Feedback","Yes","6","6","6","6","6","6","6","6","6","6","6","6","6","0","6","6","0","0","6","4","6","6","6","6",""
"2017/04/20 2:08:09 PM GMT+2","peter muchitsch","Grabbing Test - Haptic and Optical Feedback","Yes","6","6","6","6","6","6","3","6","6","6","6","6","6","0","6","6","0","0","5","2","1","1","5","6","das räumliche audio-gefühl der signale war irritierend"
"2017/04/20 2:13:09 PM GMT+2","Brigitte Ratzer","Grabbing Test - Optical Feedback","Yes","6","6","6","6","6","6","6","6","6","6","6","6","6","0","6","6","0","0","6","4","6","6","0","6",""
"2017/04/20 2:19:02 PM GMT+2","peter muchitsch","Grabbing Test - Optical Feedback","Yes","6","6","6","6","5","6","5","6","6","6","6","6","6","0","6","6","0","0","6","3","3","1","6","6","das irritierende audio-erleben betriffft hauptsächlich drehungen nach links"
"2017/04/20 2:24:32 PM GMT+2","Brigitte Ratzer","Grabbing Test - No Feedback","Yes","6","3","3","6","6","5","1","3","6","6","6","6","6","3","6","6","0","0","6","4","6","6","0","4",""
"2017/04/20 2:33:44 PM GMT+2","peter muchitsch","Grabbing Test - Haptic Feedback","Yes","5","5","6","6","6","6","6","6","6","6","6","6","6","0","6","6","0","1","6","4","4","4","6","6",""
"2017/04/20 2:55:20 PM GMT+2","Brigitte Ratzer","Point-cloud Editing","No","6","6","3","6","6","6","3","6","6","6","6","6","6","1","6","5","0","0","6","0","0","0","0","6",""
"2017/04/20 3:13:01 PM GMT+2","peter muchitsch","Point-cloud Editing","No","6","6","6","6","6","6","6","6","6","6","6","6","6","0","6","6","0","0","6","0","0","0","6","6",""
"2017/04/25 1:37:29 PM GMT+2","Vondeling","Basketball","Yes","3","5","4","5","6","6","5","5","6","6","5","5","6","0","3","4","0","1","5","5","6","5","5","6",""
"2017/04/25 1:55:48 PM GMT+2","Vondeling","Grabbing Test - Optical Feedback","Yes","4","6","5","6","6","5","5","5","6","6","5","6","6","0","5","4","0","1","5","6","6","6","5","3",""
"2017/04/25 2:06:32 PM GMT+2","Vondeling","Grabbing Test - Haptic and Optical Feedback","Yes","4","5","5","5","6","5","5","5","6","5","4","5","6","0","6","5","0","4","5","6","6","5","5","4",""
"2017/04/25 2:20:21 PM GMT+2","Vondeling","Grabbing Test - Haptic Feedback","Yes","5","6","6","5","6","5","6","5","6","5","5","6","6","0","6","6","0","1","5","6","6","6","5","5",""
"2017/04/25 2:29:39 PM GMT+2","Vondeling","Grabbing Test - No Feedback","Yes","4","4","5","6","6","5","5","5","6","6","5","5","6","0","6","5","1","1","5","6","5","6","0","4",""
"2017/04/25 2:58:22 PM GMT+2","Vondeling","Point-cloud Editing","No","6","6","6","6","6","6","5","6","5","5","6","5","6","0","6","6","0","0","6","0","0","0","5","6",""
"2017/04/25 4:17:04 PM GMT+2","Harald Steinlechner","Grabbing Test - Optical Feedback","Yes","1","5","2","5","6","2","2","1","6","6","6","6","6","1","6","3","0","4","6","5","6","4","0","2",""
"2017/04/25 4:23:52 PM GMT+2","Harald Steinlechner","Grabbing Test - Haptic Feedback","Yes","5","6","5","6","5","5","5","5","6","6","6","6","6","0","6","6","0","1","6","6","6","4","6","5",""
"2017/04/25 4:29:22 PM GMT+2","Harald Steinlechner","Grabbing Test - Haptic and Optical Feedback","Yes","6","6","5","6","6","6","5","5","5","6","6","6","6","0","6","5","0","0","5","6","5","5","6","6",""
"2017/04/25 4:36:35 PM GMT+2","Harald Steinlechner","Grabbing Test - No Feedback","Yes","2","6","3","6","2","5","1","1","6","6","6","6","6","0","6","2","0","1","5","6","6","3","6","2",""
"2017/04/29 6:23:30 PM GMT+2","Ingo Fellinger","Basketball","Yes","1","4","1","4","6","5","5","4","5","5","5","5","5","0","6","4","1","5","3","1","5","5","0","1",""
"2017/04/29 6:25:42 PM GMT+2","Manfred Straßer","Basketball","Yes","6","6","4","5","4","4","5","5","5","6","6","6","5","1","6","4","2","0","6","0","5","5","0","6",""
"2017/04/29 6:29:36 PM GMT+2","Sabine Straßer","Basketball","No","4","4","5","5","3","4","4","5","3","4","4","3","6","2","6","6","2","2","5","1","0","0","0","5",""
"2017/04/29 6:37:17 PM GMT+2","Ulrike Fellinger","Basketball","Yes","4","5","5","5","5","5","5","6","5","5","5","5","6","0","5","5","0","0","6","1","0","0","1","4",""
"2017/04/29 6:37:45 PM GMT+2","Vera Straßer","Basketball","Yes","5","5","6","6","4","5","6","6","5","6","6","4","6","0","6","6","1","0","4","5","5","0","0","6",""
"2017/04/29 7:10:55 PM GMT+2","Manfred Straßer","Point-cloud Editing","No","6","5","4","5","6","5","5","5","5","6","6","6","6","1","6","6","0","0","0","0","0","0","6","6",""
"2017/04/29 7:12:54 PM GMT+2","Ingo Fellinger","Point-cloud Editing","No","5","5","5","5","6","5","5","5","5","5","5","5","6","1","6","6","1","1","4","1","0","0","4","5",""
"2017/04/29 7:20:03 PM GMT+2","Vera Straßer","Point-cloud Editing","No","5","5","5","6","3","6","0","6","5","5","6","6","6","1","6","5","2","1","5","0","0","0","4","5",""
"2017/04/29 7:48:00 PM GMT+2","Ulrike Fellinger","Point-cloud Editing","No","4","4","3","3","4","5","3","5","3","5","6","6","6","0","4","5","0","0","6","0","0","0","4","5",""
"2017/04/29 7:55:05 PM GMT+2","Ingo Fellinger","Grabbing Test - Haptic and Optical Feedback","Yes","2","2","2","4","4","5","4","3","4","5","4","4","5","1","6","4","1","1","3","0","5","5","5","4",""
"2017/04/29 8:01:31 PM GMT+2","Vera Straßer","Grabbing Test - Haptic Feedback","Yes","5","6","4","6","6","4","5","6","6","6","4","4","6","0","5","6","0","0","5","5","3","0","5","5",""
"2017/04/29 8:01:35 PM GMT+2","Sabine Straßer","Point-cloud Editing","No","3","4","2","4","2","3","1","3","4","4","6","6","5","1","1","4","3","4","2","0","0","0","2","4",""
"2017/04/29 8:07:55 PM GMT+2","Ulrike Fellinger","Grabbing Test - Optical Feedback","Yes","1","4","4","2","1","4","1","1","1","4","4","0","5","0","6","0","0","3","5","3","5","5","1","1",""
"2017/04/29 8:14:30 PM GMT+2","Vera Straßer","Grabbing Test - No Feedback","Yes","6","5","4","6","5","6","5","6","6","6","4","3","6","1","6","6","0","0","6","5","5","0","0","6",""
"2017/04/29 8:17:55 PM GMT+2","Manfred Straßer","Grabbing Test - No Feedback","No","5","5","6","6","5","6","5","6","6","6","6","6","6","0","5","5","1","0","5","0","0","0","0","4",""
"2017/04/29 8:22:18 PM GMT+2","Sabine Straßer","Grabbing Test - Haptic and Optical Feedback","Yes","4","5","4","6","4","5","3","5","6","5","4","5","6","0","5","6","0","1","4","4","6","4","2","5",""
"2017/04/29 8:23:29 PM GMT+2","Vera Straßer","Grabbing Test - Optical Feedback","Yes","6","6","4","5","6","6","5","6","6","6","5","3","6","1","6","6","1","0","6","5","5","1","0","6",""
"2017/04/29 8:33:01 PM GMT+2","Manfred Straßer","Grabbing Test - Haptic Feedback","Yes","4","5","6","6","6","6","5","5","5","6","6","6","6","1","5","6","0","0","5","5","5","5","6","3",""
"2017/04/29 8:33:55 PM GMT+2","Ingo Fellinger","Grabbing Test - No Feedback","Yes","4","5","5","5","5","5","5","5","4","5","4","4","5","1","6","4","4","1","4","4","6","6","5","5",""
"2017/04/29 8:39:18 PM GMT+2","Sabine Straßer","Grabbing Test - Optical Feedback","Yes","5","5","5","6","6","6","3","5","4","5","3","1","6","0","6","6","1","0","5","5","5","3","0","6",""
"2017/04/29 8:42:50 PM GMT+2","Manfred Straßer","Grabbing Test - Optical Feedback","No","6","6","6","6","6","6","6","6","6","6","5","6","6","0","6","6","0","0","6","5","0","0","6","6",""
"2017/04/29 8:45:37 PM GMT+2","Ingo Fellinger","Grabbing Test - Haptic Feedback","Yes","4","5","5","5","5","4","5","5","5","5","5","5","5","1","6","5","1","1","5","3","6","6","5","5",""
"2017/04/29 8:56:27 PM GMT+2","Ulrike Fellinger","Grabbing Test - No Feedback","No","5","4","5","5","4","5","5","4","3","5","1","0","5","0","5","4","0","0","6","4","0","0","3","3",""
"2017/04/29 8:57:36 PM GMT+2","Manfred Straßer","Grabbing Test - Haptic and Optical Feedback","Yes","6","6","6","6","6","6","6","6","5","6","5","6","6","0","6","6","0","0","6","6","6","6","6","5",""
"2017/04/29 9:01:34 PM GMT+2","Ingo Fellinger","Grabbing Test - Optical Feedback","Yes","5","5","5","4","5","5","5","5","5","4","4","4","4","1","6","5","1","1","5","1","6","6","4","4",""
"2017/04/29 9:06:23 PM GMT+2","Vera Straßer","Grabbing Test - Haptic and Optical Feedback","Yes","5","6","5","6","5","6","4","6","5","5","4","3","6","0","6","5","0","0","6","5","5","3","3","6",""
"2017/04/29 9:11:58 PM GMT+2","Ulrike Fellinger","Grabbing Test - Haptic Feedback","Yes","1","1","1","4","2","2","1","1","2","3","1","1","2","1","3","1","0","3","1","4","1","1","2","1",""
"2017/04/29 9:27:51 PM GMT+2","Ulrike Fellinger","Grabbing Test - Haptic and Optical Feedback","Yes","5","5","5","5","5","5","5","5","5","5","3","3","5","0","6","5","3","2","5","4","3","3","3","4",""
"2017/04/29 9:33:05 PM GMT+2","Sabine Straßer","Grabbing Test - Haptic Feedback","Yes","5","5","5","6","5","6","3","4","5","5","3","3","6","1","6","6","1","1","5","4","4","3","5","5",""
"2017/04/29 9:41:37 PM GMT+2","Sabine Straßer","Grabbing Test - No Feedback","Yes","5","5","6","6","5","5","3","4","5","5","3","2","6","1","6","4","0","0","5","6","6","4","0","5",""
"2017/04/30 4:15:00 PM GMT+2","Sarah El-Sherbiny","Basketball","Yes","5","5","5","5","6","3","5","5","6","6","6","5","6","1","6","6","1","1","5","5","6","5","5","5",""
"2017/04/30 4:28:32 PM GMT+2","Sarah El-Sherbiny","Grabbing Test - No Feedback","Yes","6","5","2","5","6","5","3","5","6","6","6","6","5","0","6","5","0","0","6","6","6","5","5","3",""
"2017/04/30 4:40:50 PM GMT+2","Sarah El-Sherbiny","Grabbing Test - Haptic Feedback","Yes","6","6","2","6","6","5","2","6","6","5","5","6","6","0","6","5","0","0","5","5","6","5","5","5",""
"2017/04/30 4:49:42 PM GMT+2","Sarah El-Sherbiny","Grabbing Test - Haptic and Optical Feedback","Yes","6","6","3","6","6","5","3","6","6","6","6","6","5","0","6","5","0","0","6","6","6","5","6","5",""
"2017/04/30 5:00:07 PM GMT+2","Sarah El-Sherbiny","Grabbing Test - Optical Feedback","Yes","6","6","5","6","6","6","4","6","6","6","6","6","6","0","6","6","0","0","6","6","6","5","6","6",""
"2017/04/30 5:42:20 PM GMT+2","Sarah El-Sherbiny","Point-cloud Editing","No","6","6","6","6","6","6","6","6","6","6","6","6","6","0","6","6","0","0","6","0","0","0","6","6",""